BRCC_-_Matane	L 3	(48.843378,-67.529801)
Victoriaville_-_Stationnement_de_Bigarré	L 3	(46.057979,-71.95601)
BRCC_-_St-Hubert_-_Drummondville	L 3	(45.898911,-72.5257)
BRCC_-_Aire_de_service_de_la_Baie-de-Maskinongé	L 3	(46.195441,-73.00448)
MTQ_-_Aire_de_service_du_Point-du-Jour	L 3	(45.889457,-73.35058)
BRCC_-_Ville_de_St-Jean-sur-Richelieu_(Rona)	L 3	(45.324694,-73.248365)
St-Hubert_-_Richelieu	L 3	(45.413805,-73.240305)
BRCC_-_St-Hubert_-_Ste-Marie	L 3	(46.46915,-71.037935)
BRCC_-_Carrefour_La_Pocatière	L 3	(47.364068,-70.03577)
BRCC_-_Aire_de_service_-_Melbourne	L 3	(45.63602,-72.144073)
MTQ_-_Aire_de_service_de_Rivière-Beaudette	L 3	(45.212512,-74.338789)
BRCC_-_Village-relais_de_Yamachiche	L 3	(46.261558,-72.87568)
Carrefour_Santé_Globale	L 3	(45.281074,-72.185433)
BRCC_-_St-Hubert_-_Piedmont	L 3	(45.889929,-74.145738)
BRCC_-_Ville_de_Saguenay	L 3	(48.380845,-71.083094)
MTQ_-_Restaurant_Le_Chavigny_-_Deschambault	L 3	(46.639683,-71.99645)
BRCC_-_Ville_de_l'Ange-Gardien	L 3	(45.608671,-75.395488)
BRCC_–_Ville_de_St-Jean-sur-Richelieu_(Capitol)	L 3	(45.308564,-73.252001)
BRCC_-_St-Hubert_-_Laval	L 3	(45.556904,-73.74984)
BRCC_-_Ville_de_Granby	L 3	(45.395589,-72.712862)
Centre_de_services_communautaires_du_Monastère	L 3	(45.524942,-73.580838)
BRCC_-_La_Belle_Québécoise_-_Daveluyville	L 3	(46.171793,-72.137503)
BRCC_-_St-Hubert_-_Ste-Agathe	L 3	(46.043449,-74.266295)
BRCC_-_CAA_Québec	L 3	(46.8374297217684,-71.2692513715874)
BRCC_-_Carrefour_de_l'Érable_-_Plessisville	L 3	(46.21421,-71.7715)
BRCC_-_Ville_de_Montebello	L 3	(45.64985,-74.94192)
BRCC_-_St-Hubert_-_Bromont	L 3	(45.333724,-72.648288)
BRCC_-_Aire_de_service_-_Rigaud	L 3	(45.476593,-74.28443)
BRCC_-_St-Hubert_-_St-Jérôme	L 3	(45.77964,-74.016746)
BRCC_-_Ville_de_Val_d'Or	L 3	(48.10188,-77.789386)
BRCC_-_Les_Pères_Nature	L 3	(46.125588,-70.684813)
BRCC_-_Ste-Anne-des-Monts	L 3	(49.12436,-66.491212)
BRCC_–_Le_Coq_Rôti_–_L’Étape	L 3	(47.560204,-71.23043)
BRCC_-_Ste-Julie	L 3	(45.577444303076,-73.3280659104926)
BRCC_-_Ville_de_Mont-Joli	L 3	(48.585358,-68.188612)
St-Hubert_-_Boucherville	L 3	(45.600662,-73.447509)
BRCC_-_St-Hubert_-_Vaudreuil-Dorion	L 3	(45.408302,-74.034054)
